{
  "page": 1,
  "total_results": 84687,
  "total_pages": 4235,
  "results": [
    {
      "vote_count": 0,
      "id": 513536,
      "video": false,
      "vote_average": 0,
      "title": "Home Free",
      "popularity": 12.09957,
      "poster_path": "/ridOrzmSG372VZ0DIPg1gwBkICA.jpg",
      "original_language": "en",
      "original_title": "Home Free",
      "genre_ids": [
        18
      ],
      "backdrop_path": "/ncvj5AcLyLH9OaxDDEIP5ZLYQv5.jpg",
      "adult": false,
      "overview": "As college students Jake and Jan struggle to stay afloat in the current economic climate, a lucrative business opportunity presents itself through their angel investor and landlord, George. After an unfortunate series of events, the deal suddenly falls apart, and the couple, now further in debt, takes drastic measures to eliminate George to collect a large sum of money. But things do not always go to plan and after numerous failed attempts to wipe out their intended target, the couple goes on the run with George in close pursuit to even the score.",
      "release_date": "2018-05-03"
    },
    {
      "vote_count": 0,
      "id": 521929,
      "video": false,
      "vote_average": 0,
      "title": "Familiye",
      "popularity": 3.8,
      "poster_path": "/AnkKHDJCnpdX7KVJYMWoYskFFk6.jpg",
      "original_language": "de",
      "original_title": "Familiye",
      "genre_ids": [
        18
      ],
      "backdrop_path": null,
      "adult": false,
      "overview": "",
      "release_date": "2018-05-03"
    },
    {
      "vote_count": 0,
      "id": 522116,
      "video": false,
      "vote_average": 0,
      "title": "Ananta",
      "popularity": 3,
      "poster_path": "/gN7OEaShJIJ0hsLtLPlqarnCD6u.jpg",
      "original_language": "en",
      "original_title": "Ananta",
      "genre_ids": [
        10749,
        18
      ],
      "backdrop_path": null,
      "adult": false,
      "overview": "A girl named Tania loved to paint and was seen as weird by almost everyone, until a village boy joined her class and took care of her when nobody else can. Their bond turned stronger and more intense after signing a business partnership. When a charming art businessman also took part in her life, Tania's mind juggled between her best friend, her lover, and her late dad whom she missed.",
      "release_date": "2018-05-03"
    },
    {
      "vote_count": 0,
      "id": 516039,
      "video": false,
      "vote_average": 0,
      "title": "Ruth",
      "popularity": 12.032101,
      "poster_path": "/smd7yPlIQnd4PW4dCIEKGw8Lvdk.jpg",
      "original_language": "en",
      "original_title": "Ruth",
      "genre_ids": [
        18
      ],
      "backdrop_path": null,
      "adult": false,
      "overview": "In the same year that war broke in the portuguese colonies, another conflict was taking place between the most powerful football clubs in the country. The target, a young player from Mozambique named Eusébio da Silva Ferreira...",
      "release_date": "2018-05-03"
    },
    {
      "vote_count": 0,
      "id": 423612,
      "video": false,
      "vote_average": 0,
      "title": "Work Without Author",
      "popularity": 12.235787,
      "poster_path": "/eFe5Zsj7xQz1MqOHdMLxzE4qOYx.jpg",
      "original_language": "de",
      "original_title": "Werk ohne Autor",
      "genre_ids": [
        36,
        18
      ],
      "backdrop_path": null,
      "adult": false,
      "overview": "German artist Kurt Barnert has escaped East Germany and now lives in West Germany, but is tormented by his childhood under the Nazis and the GDR regime.",
      "release_date": "2018-05-03"
    },
    {
      "vote_count": 0,
      "id": 479703,
      "video": false,
      "vote_average": 0,
      "title": "Teu Mundo não cabe nos Meus Olhos",
      "popularity": 13.221513,
      "poster_path": "/nvKyCIHGEi5hXDnOXH10fLeZTae.jpg",
      "original_language": "pt",
      "original_title": "Teu Mundo não cabe nos Meus Olhos",
      "genre_ids": [
        18
      ],
      "backdrop_path": "/pvEyw8ohC1x682TghzJOygx4SLG.jpg",
      "adult": false,
      "overview": "",
      "release_date": "2018-05-03"
    },
    {
      "vote_count": 0,
      "id": 440626,
      "video": false,
      "vote_average": 0,
      "title": "Sobibor",
      "popularity": 22.105125,
      "poster_path": "/hKhfTKxcSqj64RtNXHJwyFPUB2W.jpg",
      "original_language": "ru",
      "original_title": "Собибор",
      "genre_ids": [
        18,
        10752,
        36
      ],
      "backdrop_path": "/1w2YGWzjSDiGImc5sy9HLbOXJsk.jpg",
      "adult": false,
      "overview": "Based on the true story, international historical project “Sobibor” is dedicated to the heroism of the Soviet o cer Alexander Pechersky. During the great Patriotic war, being in a Nazi concentration camp Sobibor he managed to do the impossible — for only three weeks to organize a revolt and mass escape of the prisoners. Part of the escapees were caught and shot, and the rest led by Pechersky managed to escape and joined the partisans.",
      "release_date": "2018-05-03"
    },
    {
      "vote_count": 0,
      "id": 497917,
      "video": false,
      "vote_average": 0,
      "title": "Parole contre parole",
      "popularity": 1.000038,
      "poster_path": null,
      "original_language": "fr",
      "original_title": "Parole contre parole",
      "genre_ids": [
        18
      ],
      "backdrop_path": "/xqd8tSCXkvA3JvxpeF0nMdz0vy5.jpg",
      "adult": false,
      "overview": "",
      "release_date": "2018-05-02"
    },
    {
      "vote_count": 0,
      "id": 499724,
      "video": false,
      "vote_average": 0,
      "title": "Cornélius, le meunier hurlant",
      "popularity": 10.905121,
      "poster_path": null,
      "original_language": "fr",
      "original_title": "Cornélius, le meunier hurlant",
      "genre_ids": [
        18
      ],
      "backdrop_path": null,
      "adult": false,
      "overview": "",
      "release_date": "2018-05-02"
    },
    {
      "vote_count": 0,
      "id": 522059,
      "video": false,
      "vote_average": 0,
      "title": "The Hit",
      "popularity": 3,
      "poster_path": "/hATIPJ6QLFknzQ5yT9DoMzfKEqP.jpg",
      "original_language": "cn",
      "original_title": "咖啡蛋撻子彈",
      "genre_ids": [
        80,
        18
      ],
      "backdrop_path": null,
      "adult": false,
      "overview": "Two hit men awaits their target in an empty shop lot, but the job has been delayed and they wait into the long night.",
      "release_date": "2018-05-02"
    },
    {
      "vote_count": 0,
      "id": 474206,
      "video": false,
      "vote_average": 0,
      "title": "The Night I Swam",
      "popularity": 4.697212,
      "poster_path": "/mHTVJls3HNz7feDfvZ81Sc38WFb.jpg",
      "original_language": "ja",
      "original_title": "泳ぎすぎた夜",
      "genre_ids": [
        18
      ],
      "backdrop_path": "/wgnZz5GwBp0GQx70J2hlkpTPTbi.jpg",
      "adult": false,
      "overview": "Snow covered mountains in Japan. Every night, a fisherman makes his way to the market in town.  His 6 year old son is awoken by his departure and finds it impossible to fall back to sleep. In the sleeping household, the young boy draws a picture he then slips into his satchel. On his way to school, still drowsy, he strays off the path and wanders into the snow...",
      "release_date": "2018-05-02"
    },
    {
      "vote_count": 0,
      "id": 464699,
      "video": false,
      "vote_average": 0,
      "title": "Comme des rois",
      "popularity": 12.011641,
      "poster_path": "/l7BeAYHTWDkbV4gMZrYWIYv7oCL.jpg",
      "original_language": "fr",
      "original_title": "Comme des rois",
      "genre_ids": [
        18
      ],
      "backdrop_path": "/iRHTNpbgY2ewSfFnx2w3PE1dZQ5.jpg",
      "adult": false,
      "overview": "",
      "release_date": "2018-05-02"
    },
    {
      "vote_count": 0,
      "id": 521639,
      "video": false,
      "vote_average": 0,
      "title": "County Line",
      "popularity": 3.8,
      "poster_path": "/ns4Kx86p8u4EZUs2T9RObDkbQoK.jpg",
      "original_language": "en",
      "original_title": "County Line",
      "genre_ids": [
        28,
        18,
        37
      ],
      "backdrop_path": null,
      "adult": false,
      "overview": "Sheriff Rockwell is settling into an unwanted retirement until his old war buddy and neighboring Sheriff is mysteriously shot. When overlooked evidence points to corruption, Alden must take the investigation into his own hands or else standby while a greater evil takes over the town.",
      "release_date": "2018-05-01"
    },
    {
      "vote_count": 0,
      "id": 500120,
      "video": false,
      "vote_average": 0,
      "title": "Helsinki Fiction",
      "popularity": 8.512716,
      "poster_path": null,
      "original_language": "fi",
      "original_title": "Helsinki Fiction",
      "genre_ids": [
        18
      ],
      "backdrop_path": null,
      "adult": false,
      "overview": "A young man moves back to his old neighborhood. A boy who lives in the same town, gets mixed in something that's way over his head.",
      "release_date": "2018-05-01"
    },
    {
      "vote_count": 1,
      "id": 485975,
      "video": false,
      "vote_average": 0,
      "title": "_EXHIBIT_84xxx_",
      "popularity": 8.559515,
      "poster_path": "/A3DsIa1mrAvfDWVhte2M9Yv0yqY.jpg",
      "original_language": "en",
      "original_title": "_EXHIBIT_84xxx_",
      "genre_ids": [
        18,
        53
      ],
      "backdrop_path": null,
      "adult": false,
      "overview": "A young couple in the midst of committing a home burglary experiences a life-shattering turn of events that spins their relationship out of control.",
      "release_date": "2018-05-01"
    },
    {
      "vote_count": 0,
      "id": 490844,
      "video": false,
      "vote_average": 0,
      "title": "Lyfe",
      "popularity": 8.908252,
      "poster_path": null,
      "original_language": "en",
      "original_title": "Lyfe",
      "genre_ids": [
        18
      ],
      "backdrop_path": null,
      "adult": false,
      "overview": "Anthony is a young executive for a new tech start up and he's late to a meeting. He seems to have his life figured out, though. He's got it all, friends, money and the girl, but a closer look may suggest otherwise.",
      "release_date": "2018-05-01"
    },
    {
      "vote_count": 0,
      "id": 504605,
      "video": false,
      "vote_average": 0,
      "title": "Mr. Casanova",
      "popularity": 9.32855,
      "poster_path": null,
      "original_language": "fr",
      "original_title": "Toutes Sauf Une",
      "genre_ids": [
        18
      ],
      "backdrop_path": null,
      "adult": false,
      "overview": "The 45-year-old Casanova is in exile in London, where he meets a 25-year-old woman who is unimpressed by his overtures ...",
      "release_date": "2018-05-01"
    },
    {
      "vote_count": 0,
      "id": 520358,
      "video": false,
      "vote_average": 0,
      "title": "Champion",
      "popularity": 8.13848,
      "poster_path": "/lDhTfKfhLyfoYpdoN0WvMthgeus.jpg",
      "original_language": "ko",
      "original_title": "챔피언",
      "genre_ids": [
        18
      ],
      "backdrop_path": null,
      "adult": false,
      "overview": "Mark is an arm wrestler and dreams of becoming a champion. Jin-ki is a promoter and he dreams of turning his life around by using Mark. But then Marks sister Soo-jin appears and changes the live of everyone.",
      "release_date": "2018-05-01"
    },
    {
      "vote_count": 0,
      "id": 522141,
      "video": false,
      "vote_average": 0,
      "title": "Анатомия измены",
      "popularity": 3,
      "poster_path": "/oGyPL2YNuX3q1VHeta81DxuS2FS.jpg",
      "original_language": "ru",
      "original_title": "Анатомия измены",
      "genre_ids": [
        18
      ],
      "backdrop_path": "/fu185amRalNNWsMS4jN2JEeGiCl.jpg",
      "adult": false,
      "overview": "",
      "release_date": "2018-05-01"
    },
    {
      "vote_count": 0,
      "id": 429300,
      "video": false,
      "vote_average": 0,
      "title": "Adrift",
      "popularity": 11.75554,
      "poster_path": "/aNMRh4tj1ITCibaQ5r9709xDGrI.jpg",
      "original_language": "en",
      "original_title": "Adrift",
      "genre_ids": [
        18
      ],
      "backdrop_path": "/bZUmj6wzDTcZXcrRmsB2mEje03g.jpg",
      "adult": false,
      "overview": "A woman and her fiancé find themselves caught in a hurricane after departing Tahiti by boat. She wakes up after being knocked out, only to discover him missing, and the elements threatening.",
      "release_date": "2018-05-01"
    }
  ]
}