{
  "page": 1,
  "total_results": 84687,
  "total_pages": 4235,
  "results": [
    {
      "vote_count": 0,
      "id": 423612,
      "video": false,
      "vote_average": 0,
      "title": "Work Without Author",
      "popularity": 12.235787,
      "poster_path": "/eFe5Zsj7xQz1MqOHdMLxzE4qOYx.jpg",
      "original_language": "de",
      "original_title": "Werk ohne Autor",
      "genre_ids": [
        36,
        18
      ],
      "backdrop_path": null,
      "adult": false,
      "overview": "German artist Kurt Barnert has escaped East Germany and now lives in West Germany, but is tormented by his childhood under the Nazis and the GDR regime.",
      "release_date": "2018-05-03"
    },
    {
      "vote_count": 0,
      "id": 440626,
      "video": false,
      "vote_average": 0,
      "title": "Sobibor",
      "popularity": 22.105125,
      "poster_path": "/hKhfTKxcSqj64RtNXHJwyFPUB2W.jpg",
      "original_language": "ru",
      "original_title": "Собибор",
      "genre_ids": [
        18,
        10752,
        36
      ],
      "backdrop_path": "/1w2YGWzjSDiGImc5sy9HLbOXJsk.jpg",
      "adult": false,
      "overview": "Based on the true story, international historical project “Sobibor” is dedicated to the heroism of the Soviet o cer Alexander Pechersky. During the great Patriotic war, being in a Nazi concentration camp Sobibor he managed to do the impossible — for only three weeks to organize a revolt and mass escape of the prisoners. Part of the escapees were caught and shot, and the rest led by Pechersky managed to escape and joined the partisans.",
      "release_date": "2018-05-03"
    },
    {
      "vote_count": 0,
      "id": 490844,
      "video": false,
      "vote_average": 0,
      "title": "Lyfe",
      "popularity": 8.908252,
      "poster_path": null,
      "original_language": "en",
      "original_title": "Lyfe",
      "genre_ids": [
        18,
        36
      ],
      "backdrop_path": null,
      "adult": false,
      "overview": "Anthony is a young executive for a new tech start up and he's late to a meeting. He seems to have his life figured out, though. He's got it all, friends, money and the girl, but a closer look may suggest otherwise.",
      "release_date": "2018-05-01"
    },
    {
      "vote_count": 0,
      "id": 504605,
      "video": false,
      "vote_average": 0,
      "title": "Mr. Casanova",
      "popularity": 9.32855,
      "poster_path": null,
      "original_language": "fr",
      "original_title": "Toutes Sauf Une",
      "genre_ids": [
        18,
        36
      ],
      "backdrop_path": null,
      "adult": false,
      "overview": "The 45-year-old Casanova is in exile in London, where he meets a 25-year-old woman who is unimpressed by his overtures ...",
      "release_date": "2018-05-01"
    },
    {
      "vote_count": 0,
      "id": 520358,
      "video": false,
      "vote_average": 0,
      "title": "Champion",
      "popularity": 8.13848,
      "poster_path": "/lDhTfKfhLyfoYpdoN0WvMthgeus.jpg",
      "original_language": "ko",
      "original_title": "챔피언",
      "genre_ids": [
        18,
        36
      ],
      "backdrop_path": null,
      "adult": false,
      "overview": "Mark is an arm wrestler and dreams of becoming a champion. Jin-ki is a promoter and he dreams of turning his life around by using Mark. But then Marks sister Soo-jin appears and changes the live of everyone.",
      "release_date": "2018-05-01"
    },
    {
      "vote_count": 0,
      "id": 522141,
      "video": false,
      "vote_average": 0,
      "title": "Анатомия измены",
      "popularity": 3,
      "poster_path": "/oGyPL2YNuX3q1VHeta81DxuS2FS.jpg",
      "original_language": "ru",
      "original_title": "Анатомия измены",
      "genre_ids": [
        18,
        36
      ],
      "backdrop_path": "/fu185amRalNNWsMS4jN2JEeGiCl.jpg",
      "adult": false,
      "overview": "",
      "release_date": "2018-05-01"
    },
    {
      "vote_count": 0,
      "id": 429300,
      "video": false,
      "vote_average": 0,
      "title": "Adrift",
      "popularity": 11.75554,
      "poster_path": "/aNMRh4tj1ITCibaQ5r9709xDGrI.jpg",
      "original_language": "en",
      "original_title": "Adrift",
      "genre_ids": [
        18,
        36
      ],
      "backdrop_path": "/bZUmj6wzDTcZXcrRmsB2mEje03g.jpg",
      "adult": false,
      "overview": "A woman and her fiancé find themselves caught in a hurricane after departing Tahiti by boat. She wakes up after being knocked out, only to discover him missing, and the elements threatening.",
      "release_date": "2018-05-01"
    }
  ]
}